/home/parallels/git/aldesa-wms/src/main/java/org/aldesa/wms/model/TokenAutenticacion.java
/home/parallels/git/aldesa-wms/src/main/java/org/aldesa/wms/model/OrdenEntrega.java
/home/parallels/git/aldesa-wms/src/main/java/org/aldesa/wms/model/Bulk.java
/home/parallels/git/aldesa-wms/src/main/java/org/aldesa/wms/model/BulkR.java
/home/parallels/git/aldesa-wms/src/main/java/org/aldesa/wms/model/DetMercRecPK.java
/home/parallels/git/aldesa-wms/src/main/java/org/aldesa/wms/data/MercadRecibidaDaoImpl.java
/home/parallels/git/aldesa-wms/src/main/java/org/aldesa/wms/controller/DetMercRecController.java
/home/parallels/git/aldesa-wms/src/main/java/org/aldesa/wms/model/DetMercRec.java
/home/parallels/git/aldesa-wms/src/main/java/org/aldesa/wms/data/BulkDaoImpl.java
/home/parallels/git/aldesa-wms/src/main/java/org/aldesa/wms/model/InformeIngreso.java
/home/parallels/git/aldesa-wms/src/main/java/org/aldesa/wms/controller/BodegaController.java
/home/parallels/git/aldesa-wms/src/main/java/org/aldesa/wms/model/Usuario.java
/home/parallels/git/aldesa-wms/src/main/java/org/aldesa/wms/data/DetMercRecDao.java
/home/parallels/git/aldesa-wms/src/main/java/org/aldesa/wms/model/DetalleBulkRV.java
/home/parallels/git/aldesa-wms/src/main/java/org/aldesa/wms/data/UsuarioDaoImpl.java
/home/parallels/git/aldesa-wms/src/main/java/org/aldesa/wms/data/UsuarioDao.java
/home/parallels/git/aldesa-wms/src/main/java/org/aldesa/wms/model/Cliente.java
/home/parallels/git/aldesa-wms/src/main/java/org/aldesa/wms/model/OrdenReingreso.java
/home/parallels/git/aldesa-wms/src/main/java/org/aldesa/wms/model/MercPendRecibir.java
/home/parallels/git/aldesa-wms/src/main/java/org/aldesa/wms/model/MercadRecibidaPK.java
/home/parallels/git/aldesa-wms/src/main/java/org/aldesa/wms/model/Deposito.java
/home/parallels/git/aldesa-wms/src/main/java/org/aldesa/wms/model/GrupoOpcion.java
/home/parallels/git/aldesa-wms/src/main/java/org/aldesa/wms/model/Permiso.java
/home/parallels/git/aldesa-wms/src/main/java/org/aldesa/wms/data/BodegaDaoImpl.java
/home/parallels/git/aldesa-wms/src/main/java/org/aldesa/wms/data/BodegaDao.java
/home/parallels/git/aldesa-wms/src/main/java/org/aldesa/wms/model/MercPendDespachar.java
/home/parallels/git/aldesa-wms/src/main/java/org/aldesa/wms/controller/AdminController.java
/home/parallels/git/aldesa-wms/src/main/java/org/aldesa/wms/controller/ControllerUtils.java
/home/parallels/git/aldesa-wms/src/main/java/org/aldesa/wms/model/InformeRetiro.java
/home/parallels/git/aldesa-wms/src/main/java/org/aldesa/wms/controller/LoginRestController.java
/home/parallels/git/aldesa-wms/src/main/java/org/aldesa/wms/utils/CryptoUtils.java
/home/parallels/git/aldesa-wms/src/main/java/org/aldesa/wms/model/AreaPisoBodega.java
/home/parallels/git/aldesa-wms/src/main/java/org/aldesa/wms/model/UsuarioAcceso.java
/home/parallels/git/aldesa-wms/src/main/java/org/aldesa/wms/model/DetalleBulk.java
/home/parallels/git/aldesa-wms/src/main/java/org/aldesa/wms/model/MercPendPreparar.java
/home/parallels/git/aldesa-wms/src/main/java/org/aldesa/wms/model/CantidadBulkUbicados.java
/home/parallels/git/aldesa-wms/src/main/java/org/aldesa/wms/model/Patio.java
/home/parallels/git/aldesa-wms/src/main/java/org/aldesa/wms/model/MIEDESC_v.java
/home/parallels/git/aldesa-wms/src/main/java/org/aldesa/wms/model/MercadRecibida.java
/home/parallels/git/aldesa-wms/src/main/java/org/aldesa/wms/model/Impresor.java
/home/parallels/git/aldesa-wms/src/main/java/org/aldesa/wms/model/Grupo.java
/home/parallels/git/aldesa-wms/src/main/java/org/aldesa/wms/model/OrdenEntregaPK.java
/home/parallels/git/aldesa-wms/src/main/java/org/aldesa/wms/model/PosisionPasillo.java
/home/parallels/git/aldesa-wms/src/main/java/org/aldesa/wms/model/OrdenRetiro.java
/home/parallels/git/aldesa-wms/src/main/java/org/aldesa/wms/model/Muelle.java
/home/parallels/git/aldesa-wms/src/main/java/org/aldesa/wms/model/MuellePK.java
/home/parallels/git/aldesa-wms/src/main/java/org/aldesa/wms/model/BulkV.java
/home/parallels/git/aldesa-wms/src/main/java/org/aldesa/wms/model/DetalleMercPendPreparar.java
/home/parallels/git/aldesa-wms/src/main/java/org/aldesa/wms/model/BulkPendAutorizar.java
/home/parallels/git/aldesa-wms/src/main/java/org/aldesa/wms/model/OpcionMenu.java
/home/parallels/git/aldesa-wms/src/main/java/org/aldesa/wms/model/PermisosUsuarios.java
/home/parallels/git/aldesa-wms/src/main/java/org/aldesa/wms/model/BulkCreados.java
/home/parallels/git/aldesa-wms/src/main/java/org/aldesa/wms/model/UsuarioBodega.java
/home/parallels/git/aldesa-wms/src/main/java/org/aldesa/wms/model/DetalleBulkV.java
/home/parallels/git/aldesa-wms/src/main/java/org/aldesa/wms/controller/WebController.java
/home/parallels/git/aldesa-wms/src/main/java/org/aldesa/wms/model/DetalleBulkPK.java
/home/parallels/git/aldesa-wms/src/main/java/org/aldesa/wms/data/DetMercRecDaoImpl.java
/home/parallels/git/aldesa-wms/src/main/java/org/aldesa/wms/model/MERCAD_RECIBIDA_v.java
/home/parallels/git/aldesa-wms/src/main/java/org/aldesa/wms/model/BulkActivos.java
/home/parallels/git/aldesa-wms/src/main/java/org/aldesa/wms/model/EstadoMercancia.java
/home/parallels/git/aldesa-wms/src/main/java/org/aldesa/wms/model/BulkSugerido.java
/home/parallels/git/aldesa-wms/src/main/java/org/aldesa/wms/data/MercadRecibidaDao.java
/home/parallels/git/aldesa-wms/src/main/java/org/aldesa/wms/controller/UbicacionController.java
/home/parallels/git/aldesa-wms/src/main/java/org/aldesa/wms/model/PosicionDisponibleV.java
/home/parallels/git/aldesa-wms/src/main/java/org/aldesa/wms/model/MercRecibidalV.java
/home/parallels/git/aldesa-wms/src/main/java/org/aldesa/wms/model/BulkCreadosRes.java
/home/parallels/git/aldesa-wms/src/main/java/org/aldesa/wms/model/HistoricoClave.java
/home/parallels/git/aldesa-wms/src/main/java/org/aldesa/wms/model/MercRecibidaCompleta.java
/home/parallels/git/aldesa-wms/src/main/java/org/aldesa/wms/model/Parametros.java
/home/parallels/git/aldesa-wms/src/main/java/org/aldesa/wms/model/DetalleInformeRetiro.java
/home/parallels/git/aldesa-wms/src/main/java/org/aldesa/wms/model/UbicacionBulk.java
/home/parallels/git/aldesa-wms/src/main/java/org/aldesa/wms/model/MercRecibida.java
/home/parallels/git/aldesa-wms/src/main/java/org/aldesa/wms/model/PosicionEstante.java
/home/parallels/git/aldesa-wms/src/main/java/org/aldesa/wms/model/Bodega.java
/home/parallels/git/aldesa-wms/src/main/java/org/aldesa/wms/data/BulkDao.java
